[
  {
    "id": 1,
    "name": "Свет",
    "class": "",
    "type": "number",
    "location": 1,
    "data": null,
    "data_type": "",
    "update_at": null,
    "validate": {
      "min": 5,
      "max": 1024,
      "indicators": [
        [
          "warning",
          0,
          200
        ],
        [
          "success",
          201,
          700
        ],
        [
          "danger",
          701,
          1024
        ]
      ]
    },
    "system": {
      "alertClass": "default",
      "connection": false
    }
  },
  {
    "id": 2,
    "name": "ШИМ светодиод",
    "class": "",
    "type": "number",
    "location": 1,
    "data": null,
    "data_type": "",
    "update_at": null,
    "validate": {
      "min": 0,
      "max": 255,
      "indicators": [
        [
          "info",
          0,
          100
        ],
        [
          "success",
          101,
          200
        ],
        [
          "danger",
          201,
          255
        ]
      ]
    },
    "system": {
      "alertClass": "default",
      "connection": false
    }
  },
  {
    "id": 3,
    "name": "Цифровой светодиод",
    "class": "",
    "type": "bool",
    "location": 1,
    "data": null,
    "data_type": "",
    "update_at": null,
    "validate": {
      "indicators": [
        [
          "success",
          false
        ],
        [
          "warning",
          true
        ]
      ]
    },
    "system": {
      "alertClass": "default",
      "connection": false
    }
  },
  {
    "id": 4,
    "name": "Дальномер",
    "class": "",
    "type": "number",
    "location": 1,
    "data": null,
    "data_type": "",
    "update_at": null,
    "validate": {
      "min": 0,
      "max": 300,
      "indicators": [
        [
          "info",
          0,
          100
        ],
        [
          "success",
          101,
          200
        ],
        [
          "danger",
          201,
          300
        ]
      ]
    },
    "system": {
      "alertClass": "default",
      "connection": false
    }
  },
  {
    "id": 5,
    "name": "Датчик газа",
    "class": "",
    "type": "bool",
    "location": 1,
    "data": null,
    "data_type": "",
    "update_at": null,
    "validate": {
      "indicators": [
        [
          "danger",
          false
        ]
      ]
    },
    "system": {
      "alertClass": "default",
      "connection": false
    }
  },
  {
    "id": 6,
    "name": "Загазованность",
    "class": "",
    "type": "number",
    "location": 1,
    "data": null,
    "data_type": "",
    "update_at": null,
    "validate": {
      "min": 0,
      "max": 1023,
      "indicators": [
        [
          "info",
          0,
          30
        ],
        [
          "success",
          31,
          50
        ],
        [
          "warning",
          201,
          500
        ],
        [
          "danger",
          501,
          1023
        ]
      ]
    },
    "system": {
      "alertClass": "default",
      "connection": false
    }
  }
]