[
  {
    "id": 1,
    "title": "Установка приложения",
    "image": "/assets/images/guide/tech.jpg",
    "order": 1,
    "preview": "Установка веб-панели \"Мой умный дом\"",
    "template": "/data/templates/1.html",
    "content": ""
  },
  {
    "id": 2,
    "title": "Добавление локации",
    "image": "/assets/images/guide/tech1.jpg",
    "order": 2,
    "preview": "В данном разделе Вы познакомитесь с локациями: созданием, настройкой и управлением",
    "template": "/data/templates/2.html",
    "content": ""
  },
  {
    "id": 3,
    "title": "Добавление датчика",
    "image": "/assets/images/guide/tech.jpg",
    "order": 3,
    "preview": "Добавление и настройка датчиков",
    "template": "/data/templates/3.html",
    "content": ""
  },
  {
    "id": 4,
    "title": "Добавление устройства",
    "image": "/assets/images/guide/tech1.jpg",
    "order": 4,
    "preview": "Добавление и настройка устройства",
    "template": "/data/templates/4.html",
    "content": ""
  },
  {
    "id": 5,
    "title": "Подключение Arduino Server (AS)",
    "image": "/assets/images/guide/tech.jpg",
    "order": 5,
    "preview": "Подключение сервера на основе Arduino для считывания показаний с датчиков и управления устройствами",
    "template": "/data/templates/5.html",
    "content": ""
  }
]